…
# Display the reshaped data
print(FI_With_Others)
```

    ## # A tibble: 105 × 5
    ##    Pairs          Trait1      Trait2 correlation_type correlation
    ##    <chr>          <chr>       <chr>  <chr>                  <dbl>
    ##  1 Albumin_FI     Albumin     FI     DEL-burden           -0.0696
    ##  2 Albumin_FI     Albumin     FI     DUP-burden            0.0538
    ##  3 Albumin_FI     Albumin     FI     SNV-lof-burden        0.138 
    ##  4 Albumin_FI     Albumin     FI     Phenotype             0.0297
    ##  5 Albumin_FI     Albumin     FI     SNP (rg)              0.0336
    ##  6 BirthWeight_FI BirthWeight FI     DEL-burden            0.405 
    ##  7 BirthWeight_FI BirthWeight FI     DUP-burden            0.117 
    ##  8 BirthWeight_FI BirthWeight FI     SNV-lof-burden        0.456 
    ##  9 BirthWeight_FI BirthWeight FI     Phenotype             0.0586
    ## 10 BirthWeight_FI BirthWeight FI     SNP (rg)              0.122 
    ## # ℹ 95 more rows
…
